OZNAL projekt 2
…
Peter Slovák, Pavol Hradský

2024-04-13

Regresia bola odstránená z dôvodu prehľadnosti.

Bc. Peter Slovák, Bc. Pavol Hradský

Načítanie dát, pred úpravou

data <- read_csv("Life Expectancy Data.csv", col_names = TRUE)
data

## # A tibble: 2,938 × 22
##    Country      Year Status  `Life expectancy` `Adult Mortality` `infant deaths`
##    <chr>       <dbl> <chr>               <dbl>             <dbl>           <dbl>
##  1 Afghanistan  2015 Develo…              65                 263              62
##  2 Afghanistan  2014 Develo…              59.9               271              64
##  3 Afghanistan  2013 Develo…              59.9               268              66
##  4 Afghanistan  2012 Develo…              59.5               272              69
##  5 Afghanistan  2011 Develo…              59.2               275              71
##  6 Afghanistan  2010 Develo…              58.8               279              74
##  7 Afghanistan  2009 Develo…              58.6               281              77
##  8 Afghanistan  2008 Develo…              58.1               287              80
##  9 Afghanistan  2007 Develo…              57.5               295              82
## 10 Afghanistan  2006 Develo…              57.3               295              84
## # ℹ 2,928 more rows
## # ℹ 16 more variables: Alcohol <dbl>, `percentage expenditure` <dbl>,
## #   `Hepatitis B` <dbl>, Measles <dbl>, BMI <dbl>, `under-five deaths` <dbl>,
## #   Polio <dbl>, `Total expenditure` <dbl>, Diphtheria <dbl>, `HIV/AIDS` <dbl>,
## #   GDP <dbl>, Population <dbl>, `thinness  1-19 years` <dbl>,
## #   `thinness 5-9 years` <dbl>, `Income composition of resources` <dbl>,
## #   Schooling <dbl>
…
Úprava datasetu o stĺpec Continent, pre možné budúce použitie.

install.packages("countrycode", repos="https://cloud.r-project.org/")

## package 'countrycode' successfully unpacked and MD5 sums checked
## 
## The downloaded binary packages are in
##  C:\Users\peter\AppData\Local\Temp\Rtmpg1SPmk\downloaded_packages

library(countrycode)
data$Continent <- countrycode(data$Country, "country.name", "continent")
data

## # A tibble: 2,928 × 23
##    Country      Year Status  `Life expectancy` `Adult Mortality` `infant deaths`
##    <chr>       <dbl> <chr>               <dbl>             <dbl>           <dbl>
##  1 Afghanistan  2015 Develo…              65                 263              62
##  2 Afghanistan  2014 Develo…              59.9               271              64
##  3 Afghanistan  2013 Develo…              59.9               268              66
##  4 Afghanistan  2012 Develo…              59.5               272              69
##  5 Afghanistan  2011 Develo…              59.2               275              71
##  6 Afghanistan  2010 Develo…              58.8               279              74
##  7 Afghanistan  2009 Develo…              58.6               281              77
##  8 Afghanistan  2008 Develo…              58.1               287              80
##  9 Afghanistan  2007 Develo…              57.5               295              82
## 10 Afghanistan  2006 Develo…              57.3               295              84
## # ℹ 2,918 more rows
## # ℹ 17 more variables: Alcohol <dbl>, `percentage expenditure` <dbl>,
## #   `Hepatitis B` <dbl>, Measles <dbl>, BMI <dbl>, `under-five deaths` <dbl>,
## #   Polio <dbl>, `Total expenditure` <dbl>, Diphtheria <dbl>, `HIV/AIDS` <dbl>,
## #   GDP <dbl>, Population <dbl>, `thinness  1-19 years` <dbl>,
## #   `thinness 5-9 years` <dbl>, `Income composition of resources` <dbl>,
## #   Schooling <dbl>, Continent <chr>
…
data %<>% 
  mutate(status_oh = if_else(Status=='Developed', 1, 0)) %>%
  relocate(status_oh)

Rozdelenie dát na trénovacie a testovacie

# train test split
set.seed(123)
train_index <- sample(1:nrow(data), 0.8*nrow(data)) # 80% train, 20% test
train_data <- data[train_index,]
test_data <- data[-train_index,]
train_data

## # A tibble: 2,342 × 24
##    status_oh Country             Year Status `Life expectancy` `Adult Mortality`
##        <dbl> <chr>              <dbl> <chr>              <dbl>             <dbl>
##  1         0 Sudan               2001 Devel…              58.9               283
##  2         1 Sweden              2001 Devel…              79.8                73
##  3         0 Saudi Arabia        2013 Devel…              74.3                89
##  4         0 Central African R…  2002 Devel…              45.6                58
##  5         0 Bangladesh          2013 Devel…              71                 135
##  6         1 New Zealand         2014 Devel…              81.5                67
##  7         0 Honduras            2010 Devel…              73.6               156
##  8         1 Ireland             2011 Devel…              84                   7
##  9         0 Israel              2012 Devel…              81.8                 6
## 10         0 Greece              2002 Devel…              79                  81
## # ℹ 2,332 more rows
## # ℹ 18 more variables: `infant deaths` <dbl>, Alcohol <dbl>,
## #   `percentage expenditure` <dbl>, `Hepatitis B` <dbl>, Measles <dbl>,
## #   BMI <dbl>, `under-five deaths` <dbl>, Polio <dbl>,
## #   `Total expenditure` <dbl>, Diphtheria <dbl>, `HIV/AIDS` <dbl>, GDP <dbl>,
## #   Population <dbl>, `thinness  1-19 years` <dbl>, `thinness 5-9 years` <dbl>,
## #   `Income composition of resources` <dbl>, Schooling <dbl>, Continent <chr>

test_data

## # A tibble: 586 × 24
##    status_oh Country      Year Status     `Life expectancy` `Adult Mortality`
##        <dbl> <chr>       <dbl> <chr>                  <dbl>             <dbl>
##  1         0 Afghanistan  2013 Developing              59.9               268
##  2         0 Afghanistan  2010 Developing              58.8               279
##  3         0 Afghanistan  2001 Developing              55.3               316
##  4         0 Albania      2010 Developing              76.2                91
##  5         0 Albania      2006 Developing              74.2                99
##  6         0 Algeria      2006 Developing              73.4               132
##  7         0 Algeria      2005 Developing              72.9               136
##  8         0 Angola       2014 Developing              51.7               348
##  9         0 Angola       2011 Developing              51                 361
## 10         0 Angola       2009 Developing              49.1               369
## # ℹ 576 more rows
## # ℹ 18 more variables: `infant deaths` <dbl>, Alcohol <dbl>,
## #   `percentage expenditure` <dbl>, `Hepatitis B` <dbl>, Measles <dbl>,
## #   BMI <dbl>, `under-five deaths` <dbl>, Polio <dbl>,
## #   `Total expenditure` <dbl>, Diphtheria <dbl>, `HIV/AIDS` <dbl>, GDP <dbl>,
## #   Population <dbl>, `thinness  1-19 years` <dbl>, `thinness 5-9 years` <dbl>,
## #   `Income composition of resources` <dbl>, Schooling <dbl>, Continent <chr>
…
Drop NA rows pre použité stĺpce v modeli, kvôli prevencii proti
odstráneniu počas predikcii:

library(conflicted)

train_data %>% 
  dplyr::select(status_oh, `Life expectancy`, `Adult Mortality`, Alcohol, 
         `percentage expenditure`, BMI, `Total expenditure`, 
         Diphtheria, `HIV/AIDS`, GDP, `Income composition of resources`, 
         Schooling) %>%
  drop_na()

## # A tibble: 1,843 × 12
##    status_oh `Life expectancy` `Adult Mortality` Alcohol percentage expenditur…¹
##        <dbl>             <dbl>             <dbl>   <dbl>                   <dbl>
##  1         1              79.8                73    6.6                   3555. 
##  2         0              74.3                89    0.09                  2047. 
##  3         0              45.6                58    1.47                    31.6
##  4         0              71                 135    0.01                    52.8
##  5         1              81.5                67    9.07                  1040. 
##  6         0              73.6               156    3.1                    302. 
##  7         1              84                   7   11.7                   6387. 
##  8         0              81.8                 6    2.78                  3830. 
##  9         0              79                  81    8.09                   161. 
## 10         0              78.1                14    4.13                   751. 
## # ℹ 1,833 more rows
## # ℹ abbreviated name: ¹​`percentage expenditure`
## # ℹ 7 more variables: BMI <dbl>, `Total expenditure` <dbl>, Diphtheria <dbl>,
## #   `HIV/AIDS` <dbl>, GDP <dbl>, `Income composition of resources` <dbl>,
## #   Schooling <dbl>
…
