OZNAL projekt 3
…
Peter Slovák, Pavol Hradský

2024-04-21

Regresia, klasifikácia bola odstránená z dôvodu prehľadnosti, EDA
bola ponechaná a rozšírená.

Bc. Peter Slovák, Bc. Pavol Hradský

Načítanie dát, pred úpravou

data <- read_csv("Life Expectancy Data.csv", col_names = TRUE)
data

## # A tibble: 2,938 × 22
##    Country      Year Status  `Life expectancy` `Adult Mortality` `infant deaths`
##    <chr>       <dbl> <chr>               <dbl>             <dbl>           <dbl>
##  1 Afghanistan  2015 Develo…              65                 263              62
##  2 Afghanistan  2014 Develo…              59.9               271              64
##  3 Afghanistan  2013 Develo…              59.9               268              66
##  4 Afghanistan  2012 Develo…              59.5               272              69
##  5 Afghanistan  2011 Develo…              59.2               275              71
##  6 Afghanistan  2010 Develo…              58.8               279              74
##  7 Afghanistan  2009 Develo…              58.6               281              77
##  8 Afghanistan  2008 Develo…              58.1               287              80
##  9 Afghanistan  2007 Develo…              57.5               295              82
## 10 Afghanistan  2006 Develo…              57.3               295              84
## # ℹ 2,928 more rows
## # ℹ 16 more variables: Alcohol <dbl>, `percentage expenditure` <dbl>,
## #   `Hepatitis B` <dbl>, Measles <dbl>, BMI <dbl>, `under-five deaths` <dbl>,
## #   Polio <dbl>, `Total expenditure` <dbl>, Diphtheria <dbl>, `HIV/AIDS` <dbl>,
## #   GDP <dbl>, Population <dbl>, `thinness  1-19 years` <dbl>,
## #   `thinness 5-9 years` <dbl>, `Income composition of resources` <dbl>,
## #   Schooling <dbl>
…
